<?xml version="1.0" encoding="utf-8"?>
<!-- Generator: Adobe Illustrator 23.0.6, SVG Export Plug-In . SVG Version: 6.00 Build 0)  -->
<svg version="1.1" id="Ebene_6" xmlns="http://www.w3.org/2000/svg" xmlns:xlink="http://www.w3.org/1999/xlink" x="0px" y="0px"
	 viewBox="0 0 604 600" style="enable-background:new 0 0 604 600;" xml:space="preserve">
<style type="text/css">
	.st0{display:none;}
	.st1{display:inline;fill:#FFFFFF;stroke:#F40B32;stroke-width:3;stroke-miterlimit:10;}
	.st2{display:inline;}
	.st3{fill:#FFFFFF;stroke:#F40B32;stroke-width:3;stroke-miterlimit:10;}
	.st4{fill-rule:evenodd;clip-rule:evenodd;fill:#CCCCFF;}
	.st5{fill:#FCE300;stroke:#000000;stroke-width:3;stroke-miterlimit:10;}
	.st6{fill:none;stroke:#000000;stroke-width:3;stroke-miterlimit:10;}
	.st7{fill-rule:evenodd;clip-rule:evenodd;}
	.st8{opacity:0.9;}
	.st9{fill:#FFC200;stroke:#000000;stroke-width:3;stroke-miterlimit:10;}
</style>
<g class="st0">
	<circle class="st1" cx="487.9" cy="118.4" r="26.2"/>
	<path class="st1" d="M541.6,232.1c0,0-6,0.6-20.8,2.8c0-2,0,5,0,5s-25.9,1-34,1c-8.2,0-34-0.2-34-0.2s0-7.7,0-5.7
		c-15.6-2.2-20.8-2.8-20.8-2.8v-40.2c0-22,12.4-39.8,40-39.8h29.7c27.6,0,40,17.8,40,39.8V232.1z"/>
	<g class="st2">
		<path class="st3" d="M520.8,186.9c0,0,0,0,0,51.2"/>
		<path class="st3" d="M452.8,186.9c0,0,0,0,0,51.2"/>
	</g>
	<circle class="st1" cx="170.2" cy="325.8" r="26.2"/>
	<path class="st1" d="M223.9,439.5c0,0-6,0.6-20.8,2.8c0-2,0,5,0,5s-25.9,1-34,1c-8.2,0-34-0.2-34-0.2s0-7.7,0-5.7
		c-15.6-2.2-20.8-2.8-20.8-2.8v-40.2c0-22,12.4-39.8,40-39.8h29.7c27.6,0,40,17.8,40,39.8V439.5z"/>
	<g class="st2">
		<path class="st3" d="M203.1,394.3c0,0,0,0,0,51.2"/>
		<path class="st3" d="M135.1,394.3c0,0,0,0,0,51.2"/>
	</g>
</g>
<path class="st4" d="M124.7,551.5C75.5,537.3,13,490.5,42.6,389.3s115.7-140.3,163.8-160.8s23.1-69.5,56.6-113
	c21.9-28.4,147.7-98.2,234.3-56.4C609,112.9,514.7,226.5,466,285.4s41.1,119.9,54,137.3C554.3,468.4,431.6,640.4,124.7,551.5z"/>
<g>
	<circle class="st5" cx="302.9" cy="309.3" r="156.5"/>
	<line class="st6" x1="302.9" y1="152.8" x2="302.9" y2="465.8"/>
	<line class="st6" x1="146.4" y1="309.3" x2="459.4" y2="309.3"/>
	<path class="st6" d="M345.3,158.6c0,0,84.9,135.6,0.3,301.3"/>
	<path class="st6" d="M262.4,158.6c0,0-84.9,135.6-0.3,301.3"/>
	<path class="st6" d="M153.2,267.8c0,0,135.6-84.9,301.3-0.3"/>
	<path class="st6" d="M153.2,350.7c0,0,135.6,84.9,301.3,0.3"/>
</g>
<circle class="st7" cx="490.1" cy="315.5" r="11.6"/>
<path class="st6" d="M498.4,318"/>
<path class="st6" d="M489.6,315.5l0.6,125c0.2,13.8-18.3,25.1-29.1,25.3h-33.7"/>
<circle class="st7" cx="113.6" cy="62.1" r="11.6"/>
<path class="st6" d="M105.3,64.6"/>
<circle class="st7" cx="243.9" cy="487.5" r="11.6"/>
<path class="st6" d="M134.4,329.9c0,0,0,115.8,0,132.1c0,16.3,4.1,26.9,25.3,26.9s75.4,0,75.4,0"/>
<path class="st6" d="M146.2,120"/>
<path class="st6" d="M341.8,157.7l0-9.1c-0.2-10.8-0.8-29.1-25.3-29.1L176.2,120h-33.7c-10.8-0.2-29.1-5.6-29.1-25.3l0.6-32.6"/>
<g>
	<g class="st8">
		<path class="st9" d="M209.1,314l-11.5,4.2c-4,1.5-8.1,2.6-12.2,3.8v-49.9h-6.8v53.7c-26,5.3-52.9,5.3-79,0v-53.7h-6.8v49.9
			c-4.1-1.2-8.2-2.4-12.2-3.8L69.2,314V288c0-21.8,8.7-39.4,30.5-39.5h79c21.8,0,30.4,17.7,30.5,39.5V314z"/>
		<path class="st9" d="M139.1,239.6c-17.3,0-31.3-14-31.3-31.3c0-17.3,14-31.3,31.3-31.3s31.3,14,31.3,31.3
			C170.4,225.5,156.4,239.5,139.1,239.6z"/>
	</g>
	<g>
		<path class="st9" d="M497.4,251.5l-11.5,4.2c-4,1.5-8.1,2.6-12.2,3.8v-49.9h-6.8v53.7c-26,5.3-52.9,5.3-79,0v-53.7h-6.8v49.9
			c-4.1-1.2-8.2-2.4-12.2-3.8l-11.5-4.2v-26.1c0-21.8,8.7-39.4,30.5-39.5h79c21.8,0,30.4,17.7,30.5,39.5V251.5z"/>
		<path class="st9" d="M427.4,177c-17.3,0-31.3-14-31.3-31.3c0-17.3,14-31.3,31.3-31.3c17.3,0,31.3,14,31.3,31.3
			C458.7,163,444.7,177,427.4,177z"/>
	</g>
	<g class="st8">
		<path class="st9" d="M427.4,490l-11.5,4.2c-4,1.5-8.1,2.6-12.2,3.8v-49.9H397v53.7c-26,5.3-52.9,5.3-79,0v-53.7h-6.8V498
			c-4.1-1.2-8.2-2.4-12.2-3.8l-11.5-4.2v-26.1c0-21.8,8.7-39.4,30.5-39.5h79c21.8,0,30.4,17.7,30.5,39.5V490z"/>
		<path class="st9" d="M357.5,415.5c-17.3,0-31.3-14-31.3-31.3c0-17.3,14-31.3,31.3-31.3c17.3,0,31.3,14,31.3,31.3
			C388.8,401.5,374.8,415.5,357.5,415.5z"/>
	</g>
</g>
</svg>
