<?xml version="1.0" encoding="utf-8"?>
<!-- Generator: Adobe Illustrator 23.0.6, SVG Export Plug-In . SVG Version: 6.00 Build 0)  -->
<svg version="1.1" id="Ebene_1" xmlns="http://www.w3.org/2000/svg" xmlns:xlink="http://www.w3.org/1999/xlink" x="0px" y="0px"
	 viewBox="0 0 200 172.8" style="enable-background:new 0 0 200 172.8;" xml:space="preserve">
<style type="text/css">
	.st0{clip-path:url(#SVGID_2_);fill:#647484;}
</style>
<g>
	<g>
		<defs>
			<rect id="SVGID_1_" width="200" height="172.8"/>
		</defs>
		<clipPath id="SVGID_2_">
			<use xlink:href="#SVGID_1_"  style="overflow:visible;"/>
		</clipPath>
		<path class="st0" d="M65.2,101.9c-20.5-16-27.5-44.5-16.8-68.1C60.3,7.6,86.6-2.7,108.8,0.6c28.5,4.3,47.9,27.2,48.9,54.8
			c0.9,25.2-15.1,46.6-34.7,53.9c-3.9-8.3-7.8-16.6-11.7-25c-1.2-2.6-3.4-5.6-3-8c0.4-2.2,3.7-4,5.7-6c7.5-7.6,15.1-15.1,22.2-23
			c2.5-2.8,4.2-6.6,5.4-10.3c1.8-5.8-1.4-10.9-7.3-12c-7.9-1.4-15.8,0.7-16.5,10c-0.3,3.6,1.5,7.5,2.7,11.2c0.6,1.7,0.8,2.9-0.4,4.4
			c-5.2,5.8-10.4,11.7-16,18c-2.8-5.9-5.3-11.3-7.9-16.7c-3.3-7-6.7-13.9-10-20.9c-3.6-7.7-11-7.9-16.2-3.8c-1.9,1.5-4,3.2-5.3,5.3
			c-4.1,7-7.8,14.2-11.8,21.6c2.2,1.3,3.8,2.2,5.5,3.2c4-5.4,7.9-10.5,12.2-16.2c0.8,1.3,1.4,2.1,1.9,3
			c5.2,10.8,10.3,21.5,15.3,32.4c0.4,1,0.4,2.9-0.3,3.6c-7,7.1-14.2,14.1-21.4,21.1C65.7,101.6,65.4,101.7,65.2,101.9"/>
		<path class="st0" d="M45.6,140.4c-2.4-0.8-4.5-1.5-6.7-2.2l0-1.3c4.3-1,8.7-2,13.2-3.1c0.1,1.6,0.2,2.8,0.3,4.2
			c7.3-1.7,14.6-8.3,21.3,0.6c3.8-1.3,7.4-2.9,11.1-3.9c8.2-2.3,14.3,2.3,14.4,10.9c0.1,6.4,0.2,12.8,0,19.3c-0.1,2.3,0.7,3.3,2.8,4
			c1.4,0.5,2.7,1.3,4.1,2c-0.1,0.3-0.3,0.7-0.4,1H86.4c-0.1-0.3-0.3-0.6-0.4-0.9c1.4-0.7,2.7-1.6,4.1-2.2c1.9-0.7,2.6-1.8,2.6-3.9
			c-0.2-5.7,0-11.3-0.1-17c0-5.9-2.9-9-8.7-9.1c-3.1-0.1-6.2,0.4-8.5,0.6c0,8.4,0.2,16.1-0.1,23.7c-0.1,3.3,0.7,5.4,4,6.2
			c0.9,0.2,1.7,1.1,2.6,1.7c-0.1,0.3-0.2,0.5-0.3,0.8H63c-0.1-0.3-0.3-0.6-0.4-0.9c1.1-0.7,2.2-1.6,3.5-2.1c2-0.7,2.7-1.8,2.6-4.1
			c-0.2-5.4-0.1-10.9,0-16.3c0-3.2,0-6.5-3.3-8.3c-3.8-2.1-8-1.8-12.1-0.7c-0.5,0.1-1,1.4-1,2.1c-0.1,8.1-0.1,16.1,0,24.2
			c0,0.9,1.2,2.1,2.1,2.7c1.4,0.9,3,1.5,4.5,2.3c-0.1,0.3-0.2,0.7-0.4,1H39.3c-0.2-0.2-0.4-0.4-0.5-0.6c0.9-0.6,1.8-1.6,2.8-1.8
			c3.4-0.8,4.2-2.8,4.1-6.1C45.4,155.7,45.6,148.1,45.6,140.4"/>
		<path class="st0" d="M21.5,154.2c-3.6,0.8-6.8,1.4-9.9,2.3c-2.5,0.7-4,2.5-4,5.3c-0.1,2.9,1.2,5.2,3.8,5.8c2.8,0.6,5.9,0.2,8.9,0
			c0.4,0,1.1-1,1.1-1.6C21.5,162.3,21.5,158.5,21.5,154.2 M35.7,169.2c-7.3,4.4-11.9,4.2-14.1-0.4c-1.7,0.8-3.4,1.6-5.2,2.4
			c-3.7,1.6-7.4,1.7-11.1,0.1c-3.4-1.5-5.5-5-5.2-8.6c0.3-3.9,2.2-6.7,6-7.7c4.6-1.1,9.4-1.7,14.1-2.5c0.4-0.1,0.8-0.2,1.3-0.2
			c0-3.6,0.1-7,0-10.5c-0.1-2.7-2.1-4.1-4.6-4.2c-2.5-0.2-5.5-1.5-6.7,2.4c-0.9,2.8-2.3,5.3-6.2,3.6v-6.5c5.5-2,11.1-3.2,17.1-2.3
			c4.5,0.6,7,2.9,7.2,7.4c0.4,6.6,0.6,13.3,0.2,19.9c-0.2,3.7,1,5.5,4.5,6.1C33.6,168.3,34.3,168.7,35.7,169.2"/>
		<path class="st0" d="M73.9,107.7c6.4-6.9,12.5-13.4,18.8-20.2c4.1,8.7,8.1,17.2,12.4,26.4C93.8,115,83.9,112.4,73.9,107.7"/>
		<path class="st0" d="M111.5,162.7c3.1-1.3,3.6,0.9,4.5,2.6c2.2,4.4,3.9,5.5,8.6,4c1.8-0.6,3.7-2.4,4.5-4.1c1-2.2,0-4.5-2.3-5.8
			c-2.9-1.7-5.9-3.3-8.8-5c-4.9-2.9-7.1-7.3-6-12.2c0.9-4.4,4.2-7.3,8.9-7.8c2-0.2,4.1-0.2,6.2,0.1c2.2,0.3,4.4,0.9,6.9,1.5v3.6v3.6
			c-2.2,1.1-3.3,0.1-4.2-1.9c-2.1-4.5-4.5-5.5-9-3.7c-4.1,1.6-5,5.7-1.5,8.4c2.7,2.1,5.9,3.7,8.9,5.4c6,3.3,8.1,7.6,6.6,13.3
			c-1.4,5.5-5.7,8.5-12.4,8.3c-3.1-0.1-6.2-0.8-9.3-1.5c-0.7-0.1-1.6-1.2-1.6-1.9C111.3,167.1,111.5,164.8,111.5,162.7"/>
		<path class="st0" d="M195.3,168.6c1.9-2.4,3.2-4.1,4.7-6c0.2,3.4-2.9,8.3-5.6,9.6c-1.9,0.8-3.1,0.3-3.9-1.5
			c-2-4.3-4.1-8.6-6.1-12.9c-0.4-0.8-0.8-1.5-1.4-2.7c-2.8,3.1-5.5,5.7-7.7,8.7c-0.5,0.7,0.2,2.4,0.5,3.6c0.9,3-0.1,4.9-2.9,5.2
			c-3.4,0.4-5.2-1.7-3.7-4.7c1.3-2.6,3.3-4.8,5.2-7c1.7-2,3.6-3.9,5.6-5.5c2-1.5,2.4-3,1.1-5.2c-1.9-3.6-3.6-7.3-5.7-11.6
			c-1.9,2.2-3.3,4-4.8,5.7c-0.2-0.1-0.5-0.3-0.7-0.4c1.5-3.2,2.5-6.8,5.8-9c1.9-1.2,3.5-0.5,4.5,1.5c1.7,3.6,3.4,7.2,5.2,10.9
			c0.4,0.7,0.8,1.5,1.5,2.8c2.3-2.5,4.5-4.6,6.1-7c0.6-0.8,0-2.6-0.3-3.9c-0.6-2.6,0.5-4.4,2.9-4.7c3.4-0.5,5.3,1.8,3.5,4.7
			c-1.9,3.1-4.5,5.8-7.1,8.4c-4.4,4.4-4.6,4.3-1.9,10.1C191.6,161,193.3,164.5,195.3,168.6"/>
		<path class="st0" d="M161,162.2c-0.7,5.2-5.6,10.1-9.6,10.5c-2.9,0.3-3.9-0.7-3.5-3.5c1.2-8.4,2.5-16.7,3.6-25.1
			c0.2-1.8,0-3.7,0-5.5c-0.4-0.1-0.7-0.2-1.1-0.3c-1.9,2.1-3.8,4.3-5.7,6.4c0-4.7,4.8-9.8,8.8-10.4c2.8-0.4,3.9,0.6,3.5,3.8
			c-0.9,7-1.9,13.9-2.9,20.9c-0.3,2-0.7,4.1-0.9,6.1c-0.1,1.2,0.3,2.4,0.4,3.6c0.3,0.1,0.6,0.2,0.9,0.3
			C156.6,167,158.6,164.8,161,162.2"/>
		<path class="st0" d="M159.9,122.9c-0.4,3.5-1.2,5.6-4,5.1c-1.1-0.2-2.5-1.7-2.7-2.7c-0.4-2.3,1.9-5,3.9-4.5
			C158.4,121.1,159.3,122.4,159.9,122.9"/>
	</g>
</g>
</svg>
